{
  "project_info": {
    "project_number": "315132956704",
    "firebase_url": "https://wheelsdemo-3c71f-default-rtdb.firebaseio.com",
    "project_id": "wheelsdemo-3c71f",
    "storage_bucket": "wheelsdemo-3c71f.appspot.com"
  },
  "client": [
    {
      "client_info": {
        "mobilesdk_app_id": "1:315132956704:android:c793551f65871e79e1ac45",
        "android_client_info": {
          "package_name": "com.example.wheelio_app"
        }
      },
      "oauth_client": [
        {
          "client_id": "315132956704-jt5d22c195uvafdglv98dc8og3sc3ic1.apps.googleusercontent.com",
          "client_type": 1,
          "android_info": {
            "package_name": "com.example.wheelio_app",
            "certificate_hash": "f76cc97efd621e127200559e2b42afb67ddce320"
          }
        },
        {
          "client_id": "315132956704-0m4bboj3e7osd6q1svunn1lg902117eg.apps.googleusercontent.com",
          "client_type": 3
        }
      ],
      "api_key": [
        {
          "current_key": "AIzaSyAlPtolg-ojhJhd5W0UE2-vh0omQu077nw"
        }
      ],
      "services": {
        "appinvite_service": {
          "other_platform_oauth_client": [
            {
              "client_id": "315132956704-0m4bboj3e7osd6q1svunn1lg902117eg.apps.googleusercontent.com",
              "client_type": 3
            },
            {
              "client_id": "315132956704-m3oubsqifthu4ql7drbg75cnthd43pbu.apps.googleusercontent.com",
              "client_type": 2,
              "ios_info": {
                "bundle_id": "com.example.wheelioApp"
              }
            }
          ]
        }
      }
    },
    {
      "client_info": {
        "mobilesdk_app_id": "1:315132956704:android:1601108730002ad0e1ac45",
        "android_client_info": {
          "package_name": "com.example.wheelsdemo"
        }
      },
      "oauth_client": [
        {
          "client_id": "315132956704-dt2onm1uf086s0av5728pn7287r3dso3.apps.googleusercontent.com",
          "client_type": 1,
          "android_info": {
            "package_name": "com.example.wheelsdemo",
            "certificate_hash": "18973897ee6b85611339b4663b46c81b33bc4a39"
          }
        },
        {
          "client_id": "315132956704-0m4bboj3e7osd6q1svunn1lg902117eg.apps.googleusercontent.com",
          "client_type": 3
        }
      ],
      "api_key": [
        {
          "current_key": "AIzaSyAlPtolg-ojhJhd5W0UE2-vh0omQu077nw"
        }
      ],
      "services": {
        "appinvite_service": {
          "other_platform_oauth_client": [
            {
              "client_id": "315132956704-0m4bboj3e7osd6q1svunn1lg902117eg.apps.googleusercontent.com",
              "client_type": 3
            },
            {
              "client_id": "315132956704-m3oubsqifthu4ql7drbg75cnthd43pbu.apps.googleusercontent.com",
              "client_type": 2,
              "ios_info": {
                "bundle_id": "com.example.wheelioApp"
              }
            }
          ]
        }
      }
    }
  ],
  "configuration_version": "1"
}